%YAML 1.1
%TAG !u! tag:unity3d.com,2011:
--- !u!221 &22100000
AnimatorOverrideController:
  m_ObjectHideFlags: 0
  m_PrefabParentObject: {fileID: 0}
  m_PrefabInternal: {fileID: 0}
  m_Name: Enemy Strong
  m_Controller: {fileID: 9100000, guid: 5c926ad4d0af8174a86789c0256200b2, type: 2}
  m_Clips:
  - m_OriginalClip: {fileID: 7400000, guid: ad10a4786680d9f47a946caf8f96dd5c, type: 2}
    m_OverrideClip: {fileID: 7400000, guid: 6524d68128e13da4ea99b206470e96b3, type: 2}
  - m_OriginalClip: {fileID: 7400000, guid: 7d6962b39c799c54c9fba2a1a9399e64, type: 2}
    m_OverrideClip: {fileID: 7400000, guid: e4de02ea23aa52b479fa73fa32e846fa, type: 2}
  - m_OriginalClip: {fileID: 7400000, guid: 5747f68ccc7530f4f8867450ed220d14, type: 2}
    m_OverrideClip: {fileID: 7400000, guid: 22f247f10c76f36439c012836466cef7, type: 2}
